{
    "components": [
        {
            "label": "Columns",
            "columns": [
                {
                    "components": [
                        {
                            "label": "Write a short review for this item",
                            "autoExpand": false,
                            "showWordCount": true,
                            "spellcheck": false,
                            "tableView": true,
                            "key": "reviewBody",
                            "type": "textarea",
                            "rows": 5,
                            "input": true,
                            "hideOnChildrenHidden": false
                        }
                    ],
                    "width": 12
                },
                {
                    "components": [
                        {
                            "label": "Rating",
                            "mask": false,
                            "spellcheck": true,
                            "tableView": false,
                            "delimiter": false,
                            "requireDecimal": false,
                            "inputFormat": "plain",
                            "validate": {
                                "required": true
                            },
                            "key": "reviewRating",
                            "type": "number",
                            "input": true,
                            "hideOnChildrenHidden": false
                        }
                    ],
                    "width": 4
                }
            ],
            "key": "columns",
            "type": "columns",
            "input": false,
            "tableView": false
        },
        {
            "label": "Add review",
            "customClass": "d-inline-block text-lowercase",
            "showValidations": false,
            "tableView": false,
            "action": "event",
            "key": "addReview",
            "type": "button",
            "input": true,
            "hideOnChildrenHidden": false
        },
        {
            "label": "Cancel",
            "action": "event",
            "customClass": "d-inline-block text-lowercase",
            "showValidations": false,
            "theme": "secondary",
            "tableView": false,
            "key": "cancel",
            "type": "button",
            "input": true,
            "hideOnChildrenHidden": false
        }
    ]
}
