{
    "settings": {
        "i18n": {
            "el": {
                "Study program": "Πρόγραμμα σπουδών",
                "Study level": "Επίπεδο σπουδών",
                "Study program specialty": "Κατεύθυνση προγράμματος σπουδών",
                "Select the study level you wish to apply for": "Επιλέξτε το επίπεδο του προγράμματος σπουδών στο οποίο επιθυμείτε να εγγραφείτε (πχ \"Μεταπτυχιακό\").",
                "Select the study program you wish to apply for": "Επιλέξτε το πρόγραμμα σπουδών στο οποίο επιθυμείτε να εγγραφείτε. Μια άδεια λίστα σημαίνει πως-τη δεδομένη χρονική στιγμή-δεν υπάρχουν διαθέσιμα προγράμματα σπουδών προς εγγραφή για το επιλεγμένο επίπεδο.",
                "Select the study program specialty": "Για να συνεχίσετε, επιλέξτε την κατεύθυνση του προγράμματος σπουδών που θα θέλατε να ακολουθήσετε."
            }
        }
    },
    "components": [
        {
            "columns": [
                {
                    "components": [
                        {
                            "label": "Study level",
                            "dataSrc": "url",
                            "data": {
                                "url": "StudyLevels?$top=-1&$select=id, name&$expand=locale&$orderby=name desc",
                                "headers": []
                            },
                            "validate": {
                                "required": false
                            },
                            "template": "{{item.locale.name || item.name}}",
                            "selectValues": "value",
                            "refreshOnChange": true,
                            "type": "select",
                            "input": true,
                            "key": "studyLevel",
                            "valueProperty": "id",
                            "lazyLoad": false,
                            "customDefaultValue": "value = data.selectedStudyProgram && !!data.selectedStudyProgram.studyLevel && (data.selectedStudyProgram.studyLevel.id || data.selectedStudyProgram.studyLevel)",
                            "description": "Select the study level you wish to apply for",
                            "logic": [
                                {
                                    "name": "disableLogic",
                                    "trigger": {
                                        "type": "javascript",
                                        "javascript": "result = (data.selectedStudyProgram && data.selectedStudyProgram.id)"
                                    },
                                    "actions": [
                                        {
                                            "name": "disableAction",
                                            "type": "property",
                                            "property": {
                                                "label": "Disabled",
                                                "value": "disabled",
                                                "type": "boolean"
                                            },
                                            "state": true
                                        }
                                    ]
                                }
                            ]
                        }
                    ],
                    "width": 12
                },
                {
                    "components": [
                        {
                            "label": "Study program",
                            "dataSrc": "url",
                            "data": {
                                "url": "StudyPrograms/availableForEnrollment?$top=-1&$filter=studyLevel eq {{data.studyLevel || 0}}&$select=id, name, printName, department, info, studyLevel, specialtySelectionSemester&$expand=department($expand=locale), info($expand=locale)",
                                "headers": []
                            },
                            "validate": {
                                "required": false
                            },
                            "dataType": "object",
                            "idPath": "id",
                            "template": "{{item.info?.locale?.degreeDescription || item.printName}} - {{item.department.locale?.name || item.department.name}}",
                            "selectValues": "value",
                            "searchFields":  [ "value.printName", "value.department.name" ],
                            "type": "select",
                            "input": true,
                            "key": "studyProgram",
                            "lazyLoad": true,
                            "customConditional": "show = !!data.studyLevel",
                            "customDefaultValue": "value = data.selectedStudyProgram",
                            "calculateValue": "if (typeof value === 'object' && Object.keys(value).length === 0) {value = null;}",
                            "redrawOn": "studyLevel",
                            "clearOnHide": true,
                            "clearOnRefresh": true,
                            "selectThreshold": 0.3,
                            "ignoreCache": true,
                            "description": "Select the study program you wish to apply for",
                            "logic": [
                                {
                                    "name": "disableLogic",
                                    "trigger": {
                                        "type": "javascript",
                                        "javascript": "result = (data.selectedStudyProgram && data.selectedStudyProgram.id)"
                                    },
                                    "actions": [
                                        {
                                            "name": "disableAction",
                                            "type": "property",
                                            "property": {
                                                "label": "Disabled",
                                                "value": "disabled",
                                                "type": "boolean"
                                            },
                                            "state": true
                                        }
                                    ]
                                }
                            ]
                        }
                    ],
                    "width": 12
                },
                {
                    "components": [
                        {
                            "label": "Study program specialty",
                            "dataSrc": "url",
                            "data": {
                                "url": "StudyPrograms/{{data.studyProgram && data.studyProgram.id}}/availableEnrollmentSpecialties?$filter=specialty ne -1&$top=-1&$expand=locale",
                                "headers": []
                            },
                            "validate": {
                                "required": false
                            },
                            "dataType": "object",
                            "idPath": "id",
                            "template": "{{item.locale?.name || item.name}}",
                            "selectValues": "value",
                            "type": "select",
                            "input": true,
                            "key": "studyProgramSpecialty",
                            "lazyLoad": true,
                            "customConditional": "show = (data.studyProgram && data.studyProgram.specialtySelectionSemester === 1 && (data.selectedSpecialty == null || data.selectedSpecialty.specialty !== -1)) || (data.selectedSpecialty && data.selectedSpecialty.name && data.selectedSpecialty.specialty !== -1)",
                            "customDefaultValue": "value = data.selectedSpecialty && data.selectedSpecialty.name",
                            "calculateValue": "if (typeof value === 'object' && Object.keys(value).length === 0) {value = null;}",
                            "refreshOn": "studyProgram",
                            "redrawOn": "studyProgram",
                            "clearOnHide": true,
                            "clearOnRefresh": true,
                            "selectThreshold": 0.3,
                            "searchEnabled": false,
                            "description": "Select the study program specialty",
                            "ignoreCache": true,
                            "logic": [
                                {
                                    "name": "disableLogic",
                                    "trigger": {
                                        "type": "javascript",
                                        "javascript": "result = (data.selectedStudyProgram && data.selectedStudyProgram.id)"
                                    },
                                    "actions": [
                                        {
                                            "name": "disableAction",
                                            "type": "property",
                                            "property": {
                                                "label": "Disabled",
                                                "value": "disabled",
                                                "type": "boolean"
                                            },
                                            "state": true
                                        }
                                    ]
                                }
                            ]
                        }
                    ],
                    "width": 12
                }
            ],
            "customClass": "formio-component-select-wrap",
            "hideLabel": true,
            "type": "columns",
            "input": false
        }
    ]
}
